Init
4
The input file is of size : 0
[('window-based', 2), ('for', 2), ('this', 2), ('is', 2), ('a', 1), ('better', 1), ('learning', 1), ('text', 1), ('technique', 1), ('deep', 1), ('sample', 1), ('another', 1), ('file', 1), ('line', 1), ('approach', 1)]
DGDD and :  [1, 1, 1, 1, 1]
Initial checking : vector_update["this : "] <type 'int'>
Hello
Hello 1
We are sending : 
['this', 'is', 'a', 'sample', 'text', 'file', 'for', 'window-based', 'deep', 'learning', 'technique']
This is the current window :
['DGDD', 'this', 'is', 'a', 'sample']
[[1, 1, 1, 1, 1], [5, 1, 5, 3, 7], [4, 2, 6, 1, 2], [2, 9, 3, 2, 1], [2, 2, 4, 6, 2]]
window-based + for + this + a + better + learning + text + technique + deep + sample + another + file + line + approach + 
abc is 
[[1]
 [1]
 [1]
 [1]
 [1]
 [5]
 [1]
 [5]
 [3]
 [7]
 [4]
 [2]
 [6]
 [1]
 [2]
 [2]
 [9]
 [3]
 [2]
 [1]
 [2]
 [2]
 [4]
 [6]
 [2]]
[[2]]
Multiplication matrix is 
[[2]]
[[ 2]
 [ 2]
 [ 2]
 [ 2]
 [ 2]
 [10]
 [ 2]
 [10]
 [ 6]
 [14]
 [ 8]
 [ 4]
 [12]
 [ 2]
 [ 4]
 [ 4]
 [18]
 [ 6]
 [ 4]
 [ 2]
 [ 4]
 [ 4]
 [ 8]
 [12]
 [ 4]]
